DM Object:Parallel Mesh 2 MPI processes
  type: plex
Parallel Mesh in 2 dimensions:
  0-cells: 19 19
  1-cells: 41 41
  2-cells: 23 23
Labels:
  marker: 2 strata of sizes (21, 11)
  depth: 3 strata of sizes (19, 41, 23)
DM Object:Simplicial Mesh 2 MPI processes
  type: plex
Mesh 'Simplicial Mesh':
Max sizes cone: 3 support: 6
orientation is missing
cap --> base:
[0]: 23 ----> 43
[0]: 23 ----> 44
[0]: 23 ----> 47
[0]: 23 ----> 48
[0]: 24 ----> 46
[0]: 24 ----> 51
[0]: 24 ----> 52
[0]: 24 ----> 54
[0]: 25 ----> 49
[0]: 25 ----> 50
[0]: 26 ----> 42
[0]: 26 ----> 43
[0]: 26 ----> 56
[0]: 26 ----> 57
[0]: 27 ----> 44
[0]: 27 ----> 45
[0]: 27 ----> 57
[0]: 27 ----> 58
[0]: 27 ----> 63
[0]: 27 ----> 64
[0]: 28 ----> 46
[0]: 28 ----> 47
[0]: 28 ----> 59
[0]: 28 ----> 61
[0]: 28 ----> 62
[0]: 28 ----> 64
[0]: 29 ----> 48
[0]: 29 ----> 49
[0]: 29 ----> 59
[0]: 29 ----> 60
[0]: 30 ----> 50
[0]: 30 ----> 51
[0]: 30 ----> 60
[0]: 30 ----> 61
[0]: 31 ----> 52
[0]: 31 ----> 53
[0]: 31 ----> 62
[0]: 31 ----> 63
[0]: 31 ----> 65
[0]: 31 ----> 67
[0]: 32 ----> 54
[0]: 32 ----> 55
[0]: 32 ----> 65
[0]: 32 ----> 66
[0]: 33 ----> 42
[0]: 33 ----> 74
[0]: 33 ----> 75
[0]: 34 ----> 45
[0]: 34 ----> 53
[0]: 34 ----> 68
[0]: 34 ----> 71
[0]: 34 ----> 72
[0]: 34 ----> 73
[0]: 35 ----> 55
[0]: 35 ----> 69
[0]: 35 ----> 70
[0]: 36 ----> 66
[0]: 36 ----> 67
[0]: 36 ----> 68
[0]: 36 ----> 69
[0]: 36 ----> 76
[0]: 36 ----> 78
[0]: 37 ----> 70
[0]: 37 ----> 76
[0]: 37 ----> 77
[0]: 38 ----> 71
[0]: 38 ----> 77
[0]: 38 ----> 78
[0]: 38 ----> 79
[0]: 39 ----> 72
[0]: 39 ----> 79
[0]: 39 ----> 80
[0]: 39 ----> 81
[0]: 40 ----> 56
[0]: 40 ----> 58
[0]: 40 ----> 73
[0]: 40 ----> 74
[0]: 40 ----> 80
[0]: 40 ----> 82
[0]: 41 ----> 75
[0]: 41 ----> 81
[0]: 41 ----> 82
[0]: 42 ----> 1
[0]: 43 ----> 2
[0]: 44 ----> 2
[0]: 44 ----> 8
[0]: 45 ----> 0
[0]: 45 ----> 10
[0]: 46 ----> 4
[0]: 46 ----> 9
[0]: 47 ----> 5
[0]: 47 ----> 8
[0]: 48 ----> 5
[0]: 49 ----> 6
[0]: 50 ----> 6
[0]: 51 ----> 4
[0]: 52 ----> 9
[0]: 52 ----> 13
[0]: 53 ----> 10
[0]: 53 ----> 12
[0]: 54 ----> 13
[0]: 55 ----> 14
[0]: 56 ----> 1
[0]: 56 ----> 3
[0]: 57 ----> 2
[0]: 57 ----> 3
[0]: 58 ----> 0
[0]: 58 ----> 3
[0]: 59 ----> 5
[0]: 59 ----> 7
[0]: 60 ----> 6
[0]: 60 ----> 7
[0]: 61 ----> 4
[0]: 61 ----> 7
[0]: 62 ----> 9
[0]: 62 ----> 11
[0]: 63 ----> 10
[0]: 63 ----> 11
[0]: 64 ----> 8
[0]: 64 ----> 11
[0]: 65 ----> 13
[0]: 65 ----> 15
[0]: 66 ----> 14
[0]: 66 ----> 15
[0]: 67 ----> 12
[0]: 67 ----> 15
[0]: 68 ----> 12
[0]: 68 ----> 16
[0]: 69 ----> 14
[0]: 69 ----> 17
[0]: 70 ----> 17
[0]: 71 ----> 16
[0]: 71 ----> 19
[0]: 72 ----> 19
[0]: 72 ----> 21
[0]: 73 ----> 0
[0]: 73 ----> 21
[0]: 74 ----> 1
[0]: 74 ----> 20
[0]: 75 ----> 20
[0]: 76 ----> 17
[0]: 76 ----> 18
[0]: 77 ----> 18
[0]: 78 ----> 16
[0]: 78 ----> 18
[0]: 79 ----> 19
[0]: 80 ----> 21
[0]: 80 ----> 22
[0]: 81 ----> 22
[0]: 82 ----> 20
[0]: 82 ----> 22
Max sizes cone: 3 support: 6
[1]: 23 ----> 42
[1]: 23 ----> 47
[1]: 24 ----> 43
[1]: 24 ----> 44
[1]: 24 ----> 54
[1]: 24 ----> 58
[1]: 25 ----> 57
[1]: 25 ----> 59
[1]: 25 ----> 72
[1]: 26 ----> 45
[1]: 26 ----> 46
[1]: 26 ----> 51
[1]: 26 ----> 52
[1]: 27 ----> 48
[1]: 27 ----> 53
[1]: 27 ----> 55
[1]: 27 ----> 56
[1]: 27 ----> 73
[1]: 27 ----> 74
[1]: 28 ----> 49
[1]: 28 ----> 50
[1]: 28 ----> 75
[1]: 29 ----> 42
[1]: 29 ----> 43
[1]: 29 ----> 60
[1]: 29 ----> 62
[1]: 30 ----> 44
[1]: 30 ----> 45
[1]: 30 ----> 60
[1]: 30 ----> 61
[1]: 30 ----> 66
[1]: 30 ----> 68
[1]: 31 ----> 46
[1]: 31 ----> 47
[1]: 31 ----> 61
[1]: 31 ----> 62
[1]: 32 ----> 48
[1]: 32 ----> 49
[1]: 32 ----> 63
[1]: 32 ----> 65
[1]: 32 ----> 81
[1]: 32 ----> 82
[1]: 33 ----> 50
[1]: 33 ----> 51
[1]: 33 ----> 63
[1]: 33 ----> 64
[1]: 34 ----> 52
[1]: 34 ----> 53
[1]: 34 ----> 64
[1]: 34 ----> 65
[1]: 34 ----> 67
[1]: 34 ----> 68
[1]: 35 ----> 54
[1]: 35 ----> 55
[1]: 35 ----> 66
[1]: 35 ----> 67
[1]: 35 ----> 69
[1]: 35 ----> 70
[1]: 36 ----> 56
[1]: 36 ----> 57
[1]: 36 ----> 69
[1]: 36 ----> 71
[1]: 36 ----> 76
[1]: 36 ----> 78
[1]: 37 ----> 58
[1]: 37 ----> 59
[1]: 37 ----> 70
[1]: 37 ----> 71
[1]: 38 ----> 72
[1]: 38 ----> 76
[1]: 38 ----> 77
[1]: 39 ----> 73
[1]: 39 ----> 77
[1]: 39 ----> 78
[1]: 39 ----> 79
[1]: 40 ----> 74
[1]: 40 ----> 79
[1]: 40 ----> 80
[1]: 40 ----> 82
[1]: 41 ----> 75
[1]: 41 ----> 80
[1]: 41 ----> 81
[1]: 42 ----> 0
[1]: 43 ----> 1
[1]: 44 ----> 1
[1]: 44 ----> 9
[1]: 45 ----> 2
[1]: 45 ----> 8
[1]: 46 ----> 2
[1]: 47 ----> 0
[1]: 48 ----> 4
[1]: 48 ----> 20
[1]: 49 ----> 5
[1]: 49 ----> 21
[1]: 50 ----> 5
[1]: 51 ----> 6
[1]: 52 ----> 6
[1]: 52 ----> 8
[1]: 53 ----> 4
[1]: 53 ----> 10
[1]: 54 ----> 9
[1]: 54 ----> 14
[1]: 55 ----> 10
[1]: 55 ----> 13
[1]: 56 ----> 13
[1]: 56 ----> 16
[1]: 57 ----> 12
[1]: 57 ----> 17
[1]: 58 ----> 14
[1]: 59 ----> 12
[1]: 60 ----> 1
[1]: 60 ----> 3
[1]: 61 ----> 2
[1]: 61 ----> 3
[1]: 62 ----> 0
[1]: 62 ----> 3
[1]: 63 ----> 5
[1]: 63 ----> 7
[1]: 64 ----> 6
[1]: 64 ----> 7
[1]: 65 ----> 4
[1]: 65 ----> 7
[1]: 66 ----> 9
[1]: 66 ----> 11
[1]: 67 ----> 10
[1]: 67 ----> 11
[1]: 68 ----> 8
[1]: 68 ----> 11
[1]: 69 ----> 13
[1]: 69 ----> 15
[1]: 70 ----> 14
[1]: 70 ----> 15
[1]: 71 ----> 12
[1]: 71 ----> 15
[1]: 72 ----> 17
[1]: 73 ----> 16
[1]: 73 ----> 19
[1]: 74 ----> 19
[1]: 74 ----> 20
[1]: 75 ----> 21
[1]: 76 ----> 17
[1]: 76 ----> 18
[1]: 77 ----> 18
[1]: 78 ----> 16
[1]: 78 ----> 18
[1]: 79 ----> 19
[1]: 80 ----> 22
[1]: 81 ----> 21
[1]: 81 ----> 22
[1]: 82 ----> 20
[1]: 82 ----> 22
base <-- cap:
[0]: 0 <---- 73 (0)
[0]: 0 <---- 58 (-2)
[0]: 0 <---- 45 (0)
[0]: 1 <---- 74 (0)
[0]: 1 <---- 42 (0)
[0]: 1 <---- 56 (-2)
[0]: 2 <---- 57 (-2)
[0]: 2 <---- 43 (0)
[0]: 2 <---- 44 (0)
[0]: 3 <---- 56 (0)
[0]: 3 <---- 57 (0)
[0]: 3 <---- 58 (0)
[0]: 4 <---- 46 (0)
[0]: 4 <---- 61 (-2)
[0]: 4 <---- 51 (0)
[0]: 5 <---- 47 (0)
[0]: 5 <---- 48 (0)
[0]: 5 <---- 59 (-2)
[0]: 6 <---- 60 (-2)
[0]: 6 <---- 49 (0)
[0]: 6 <---- 50 (0)
[0]: 7 <---- 59 (0)
[0]: 7 <---- 60 (0)
[0]: 7 <---- 61 (0)
[0]: 8 <---- 47 (-2)
[0]: 8 <---- 64 (-2)
[0]: 8 <---- 44 (-2)
[0]: 9 <---- 46 (-2)
[0]: 9 <---- 52 (0)
[0]: 9 <---- 62 (-2)
[0]: 10 <---- 63 (-2)
[0]: 10 <---- 53 (0)
[0]: 10 <---- 45 (-2)
[0]: 11 <---- 62 (0)
[0]: 11 <---- 63 (0)
[0]: 11 <---- 64 (0)
[0]: 12 <---- 53 (-2)
[0]: 12 <---- 67 (-2)
[0]: 12 <---- 68 (-2)
[0]: 13 <---- 52 (-2)
[0]: 13 <---- 54 (0)
[0]: 13 <---- 65 (-2)
[0]: 14 <---- 66 (-2)
[0]: 14 <---- 55 (0)
[0]: 14 <---- 69 (-2)
[0]: 15 <---- 65 (0)
[0]: 15 <---- 66 (0)
[0]: 15 <---- 67 (0)
[0]: 16 <---- 68 (0)
[0]: 16 <---- 78 (-2)
[0]: 16 <---- 71 (0)
[0]: 17 <---- 69 (0)
[0]: 17 <---- 70 (0)
[0]: 17 <---- 76 (-2)
[0]: 18 <---- 76 (0)
[0]: 18 <---- 77 (0)
[0]: 18 <---- 78 (0)
[0]: 19 <---- 79 (-2)
[0]: 19 <---- 72 (0)
[0]: 19 <---- 71 (-2)
[0]: 20 <---- 74 (-2)
[0]: 20 <---- 82 (-2)
[0]: 20 <---- 75 (0)
[0]: 21 <---- 73 (-2)
[0]: 21 <---- 72 (-2)
[0]: 21 <---- 80 (-2)
[0]: 22 <---- 80 (0)
[0]: 22 <---- 81 (0)
[0]: 22 <---- 82 (0)
[0]: 42 <---- 33 (0)
[0]: 42 <---- 26 (0)
[0]: 43 <---- 26 (0)
[0]: 43 <---- 23 (0)
[0]: 44 <---- 23 (0)
[0]: 44 <---- 27 (0)
[0]: 45 <---- 27 (0)
[0]: 45 <---- 34 (0)
[0]: 46 <---- 24 (0)
[0]: 46 <---- 28 (0)
[0]: 47 <---- 28 (0)
[0]: 47 <---- 23 (0)
[0]: 48 <---- 23 (0)
[0]: 48 <---- 29 (0)
[0]: 49 <---- 29 (0)
[0]: 49 <---- 25 (0)
[0]: 50 <---- 25 (0)
[0]: 50 <---- 30 (0)
[0]: 51 <---- 30 (0)
[0]: 51 <---- 24 (0)
[0]: 52 <---- 24 (0)
[0]: 52 <---- 31 (0)
[0]: 53 <---- 31 (0)
[0]: 53 <---- 34 (0)
[0]: 54 <---- 24 (0)
[0]: 54 <---- 32 (0)
[0]: 55 <---- 32 (0)
[0]: 55 <---- 35 (0)
[0]: 56 <---- 40 (0)
[0]: 56 <---- 26 (0)
[0]: 57 <---- 26 (0)
[0]: 57 <---- 27 (0)
[0]: 58 <---- 27 (0)
[0]: 58 <---- 40 (0)
[0]: 59 <---- 28 (0)
[0]: 59 <---- 29 (0)
[0]: 60 <---- 29 (0)
[0]: 60 <---- 30 (0)
[0]: 61 <---- 30 (0)
[0]: 61 <---- 28 (0)
[0]: 62 <---- 28 (0)
[0]: 62 <---- 31 (0)
[0]: 63 <---- 31 (0)
[0]: 63 <---- 27 (0)
[0]: 64 <---- 27 (0)
[0]: 64 <---- 28 (0)
[0]: 65 <---- 31 (0)
[0]: 65 <---- 32 (0)
[0]: 66 <---- 32 (0)
[0]: 66 <---- 36 (0)
[0]: 67 <---- 36 (0)
[0]: 67 <---- 31 (0)
[0]: 68 <---- 34 (0)
[0]: 68 <---- 36 (0)
[0]: 69 <---- 36 (0)
[0]: 69 <---- 35 (0)
[0]: 70 <---- 35 (0)
[0]: 70 <---- 37 (0)
[0]: 71 <---- 38 (0)
[0]: 71 <---- 34 (0)
[0]: 72 <---- 39 (0)
[0]: 72 <---- 34 (0)
[0]: 73 <---- 34 (0)
[0]: 73 <---- 40 (0)
[0]: 74 <---- 40 (0)
[0]: 74 <---- 33 (0)
[0]: 75 <---- 41 (0)
[0]: 75 <---- 33 (0)
[0]: 76 <---- 36 (0)
[0]: 76 <---- 37 (0)
[0]: 77 <---- 37 (0)
[0]: 77 <---- 38 (0)
[0]: 78 <---- 38 (0)
[0]: 78 <---- 36 (0)
[0]: 79 <---- 39 (0)
[0]: 79 <---- 38 (0)
[0]: 80 <---- 40 (0)
[0]: 80 <---- 39 (0)
[0]: 81 <---- 39 (0)
[0]: 81 <---- 41 (0)
[0]: 82 <---- 41 (0)
[0]: 82 <---- 40 (0)
[1]: 0 <---- 42 (0)
[1]: 0 <---- 62 (-2)
[1]: 0 <---- 47 (0)
[1]: 1 <---- 43 (0)
[1]: 1 <---- 44 (0)
[1]: 1 <---- 60 (-2)
[1]: 2 <---- 61 (-2)
[1]: 2 <---- 45 (0)
[1]: 2 <---- 46 (0)
[1]: 3 <---- 60 (0)
[1]: 3 <---- 61 (0)
[1]: 3 <---- 62 (0)
[1]: 4 <---- 48 (0)
[1]: 4 <---- 65 (-2)
[1]: 4 <---- 53 (0)
[1]: 5 <---- 49 (0)
[1]: 5 <---- 50 (0)
[1]: 5 <---- 63 (-2)
[1]: 6 <---- 64 (-2)
[1]: 6 <---- 51 (0)
[1]: 6 <---- 52 (0)
[1]: 7 <---- 63 (0)
[1]: 7 <---- 64 (0)
[1]: 7 <---- 65 (0)
[1]: 8 <---- 45 (-2)
[1]: 8 <---- 68 (-2)
[1]: 8 <---- 52 (-2)
[1]: 9 <---- 44 (-2)
[1]: 9 <---- 54 (0)
[1]: 9 <---- 66 (-2)
[1]: 10 <---- 67 (-2)
[1]: 10 <---- 55 (0)
[1]: 10 <---- 53 (-2)
[1]: 11 <---- 66 (0)
[1]: 11 <---- 67 (0)
[1]: 11 <---- 68 (0)
[1]: 12 <---- 57 (-2)
[1]: 12 <---- 71 (-2)
[1]: 12 <---- 59 (0)
[1]: 13 <---- 56 (-2)
[1]: 13 <---- 55 (-2)
[1]: 13 <---- 69 (-2)
[1]: 14 <---- 70 (-2)
[1]: 14 <---- 54 (-2)
[1]: 14 <---- 58 (0)
[1]: 15 <---- 69 (0)
[1]: 15 <---- 70 (0)
[1]: 15 <---- 71 (0)
[1]: 16 <---- 56 (0)
[1]: 16 <---- 78 (-2)
[1]: 16 <---- 73 (0)
[1]: 17 <---- 57 (0)
[1]: 17 <---- 72 (0)
[1]: 17 <---- 76 (-2)
[1]: 18 <---- 76 (0)
[1]: 18 <---- 77 (0)
[1]: 18 <---- 78 (0)
[1]: 19 <---- 79 (-2)
[1]: 19 <---- 74 (0)
[1]: 19 <---- 73 (-2)
[1]: 20 <---- 74 (-2)
[1]: 20 <---- 82 (-2)
[1]: 20 <---- 48 (-2)
[1]: 21 <---- 81 (-2)
[1]: 21 <---- 75 (0)
[1]: 21 <---- 49 (-2)
[1]: 22 <---- 80 (0)
[1]: 22 <---- 81 (0)
[1]: 22 <---- 82 (0)
[1]: 42 <---- 23 (0)
[1]: 42 <---- 29 (0)
[1]: 43 <---- 29 (0)
[1]: 43 <---- 24 (0)
[1]: 44 <---- 24 (0)
[1]: 44 <---- 30 (0)
[1]: 45 <---- 30 (0)
[1]: 45 <---- 26 (0)
[1]: 46 <---- 26 (0)
[1]: 46 <---- 31 (0)
[1]: 47 <---- 31 (0)
[1]: 47 <---- 23 (0)
[1]: 48 <---- 27 (0)
[1]: 48 <---- 32 (0)
[1]: 49 <---- 32 (0)
[1]: 49 <---- 28 (0)
[1]: 50 <---- 28 (0)
[1]: 50 <---- 33 (0)
[1]: 51 <---- 33 (0)
[1]: 51 <---- 26 (0)
[1]: 52 <---- 26 (0)
[1]: 52 <---- 34 (0)
[1]: 53 <---- 34 (0)
[1]: 53 <---- 27 (0)
[1]: 54 <---- 24 (0)
[1]: 54 <---- 35 (0)
[1]: 55 <---- 35 (0)
[1]: 55 <---- 27 (0)
[1]: 56 <---- 27 (0)
[1]: 56 <---- 36 (0)
[1]: 57 <---- 36 (0)
[1]: 57 <---- 25 (0)
[1]: 58 <---- 24 (0)
[1]: 58 <---- 37 (0)
[1]: 59 <---- 37 (0)
[1]: 59 <---- 25 (0)
[1]: 60 <---- 29 (0)
[1]: 60 <---- 30 (0)
[1]: 61 <---- 30 (0)
[1]: 61 <---- 31 (0)
[1]: 62 <---- 31 (0)
[1]: 62 <---- 29 (0)
[1]: 63 <---- 32 (0)
[1]: 63 <---- 33 (0)
[1]: 64 <---- 33 (0)
[1]: 64 <---- 34 (0)
[1]: 65 <---- 34 (0)
[1]: 65 <---- 32 (0)
[1]: 66 <---- 30 (0)
[1]: 66 <---- 35 (0)
[1]: 67 <---- 35 (0)
[1]: 67 <---- 34 (0)
[1]: 68 <---- 34 (0)
[1]: 68 <---- 30 (0)
[1]: 69 <---- 36 (0)
[1]: 69 <---- 35 (0)
[1]: 70 <---- 35 (0)
[1]: 70 <---- 37 (0)
[1]: 71 <---- 37 (0)
[1]: 71 <---- 36 (0)
[1]: 72 <---- 25 (0)
[1]: 72 <---- 38 (0)
[1]: 73 <---- 39 (0)
[1]: 73 <---- 27 (0)
[1]: 74 <---- 40 (0)
[1]: 74 <---- 27 (0)
[1]: 75 <---- 41 (0)
[1]: 75 <---- 28 (0)
[1]: 76 <---- 36 (0)
[1]: 76 <---- 38 (0)
[1]: 77 <---- 38 (0)
[1]: 77 <---- 39 (0)
[1]: 78 <---- 39 (0)
[1]: 78 <---- 36 (0)
[1]: 79 <---- 40 (0)
[1]: 79 <---- 39 (0)
[1]: 80 <---- 40 (0)
[1]: 80 <---- 41 (0)
[1]: 81 <---- 41 (0)
[1]: 81 <---- 32 (0)
[1]: 82 <---- 32 (0)
[1]: 82 <---- 40 (0)
coordinates with 1 fields
  field 0 with 2 components
Process 0:
  (  23) dim  2 offset   0 1 0.5
  (  24) dim  2 offset   2 0.5 1
  (  25) dim  2 offset   4 1 1
  (  26) dim  2 offset   6 1 0.25
  (  27) dim  2 offset   8 0.75 0.5
  (  28) dim  2 offset  10 0.75 0.75
  (  29) dim  2 offset  12 1 0.75
  (  30) dim  2 offset  14 0.75 1
  (  31) dim  2 offset  16 0.5 0.75
  (  32) dim  2 offset  18 0.25 1
  (  33) dim  2 offset  20 1 0
  (  34) dim  2 offset  22 0.5 0.5
  (  35) dim  2 offset  24 0 1
  (  36) dim  2 offset  26 0.25 0.75
  (  37) dim  2 offset  28 0 0.75
  (  38) dim  2 offset  30 0.25 0.5
  (  39) dim  2 offset  32 0.5 0.25
  (  40) dim  2 offset  34 0.75 0.25
  (  41) dim  2 offset  36 0.75 0
Process 1:
  (  23) dim  2 offset   0 0 0
  (  24) dim  2 offset   2 0.5 0
  (  25) dim  2 offset   4 1 0
  (  26) dim  2 offset   6 0 0.5
  (  27) dim  2 offset   8 0.5 0.5
  (  28) dim  2 offset  10 0 1
  (  29) dim  2 offset  12 0.25 0
  (  30) dim  2 offset  14 0.25 0.25
  (  31) dim  2 offset  16 0 0.25
  (  32) dim  2 offset  18 0.25 0.75
  (  33) dim  2 offset  20 0 0.75
  (  34) dim  2 offset  22 0.25 0.5
  (  35) dim  2 offset  24 0.5 0.25
  (  36) dim  2 offset  26 0.75 0.25
  (  37) dim  2 offset  28 0.75 0
  (  38) dim  2 offset  30 1 0.25
  (  39) dim  2 offset  32 0.75 0.5
  (  40) dim  2 offset  34 0.5 0.75
  (  41) dim  2 offset  36 0.25 1
Label 'marker':
[0]: 23 (1)
[0]: 24 (1)
[0]: 25 (1)
[0]: 26 (1)
[0]: 29 (1)
[0]: 30 (1)
[0]: 32 (1)
[0]: 33 (1)
[0]: 35 (1)
[0]: 37 (1)
[0]: 41 (1)
[0]: 42 (1)
[0]: 43 (1)
[0]: 48 (1)
[0]: 49 (1)
[0]: 50 (1)
[0]: 51 (1)
[0]: 54 (1)
[0]: 55 (1)
[0]: 70 (1)
[0]: 75 (1)
[0]: 27 (-1)
[0]: 31 (-1)
[0]: 34 (-1)
[0]: 38 (-1)
[0]: 39 (-1)
[0]: 44 (-1)
[0]: 45 (-1)
[0]: 52 (-1)
[0]: 53 (-1)
[0]: 71 (-1)
[0]: 72 (-1)
[1]: 23 (1)
[1]: 24 (1)
[1]: 25 (1)
[1]: 26 (1)
[1]: 28 (1)
[1]: 29 (1)
[1]: 31 (1)
[1]: 33 (1)
[1]: 37 (1)
[1]: 38 (1)
[1]: 41 (1)
[1]: 42 (1)
[1]: 43 (1)
[1]: 46 (1)
[1]: 47 (1)
[1]: 50 (1)
[1]: 51 (1)
[1]: 58 (1)
[1]: 59 (1)
[1]: 72 (1)
[1]: 75 (1)
[1]: 27 (-1)
[1]: 34 (-1)
[1]: 35 (-1)
[1]: 39 (-1)
[1]: 40 (-1)
[1]: 52 (-1)
[1]: 53 (-1)
[1]: 54 (-1)
[1]: 55 (-1)
[1]: 73 (-1)
[1]: 74 (-1)
PetscSF Object: 2 MPI processes
  type: basic
    sort=rank-order
  [0] Number of roots=83, leaves=31, remote ranks=1
  [0] 16 <- (1,4)
  [0] 17 <- (1,5)
  [0] 18 <- (1,7)
  [0] 19 <- (1,10)
  [0] 20 <- (1,12)
  [0] 21 <- (1,13)
  [0] 22 <- (1,15)
  [0] 33 <- (1,25)
  [0] 34 <- (1,27)
  [0] 35 <- (1,28)
  [0] 36 <- (1,32)
  [0] 37 <- (1,33)
  [0] 38 <- (1,34)
  [0] 39 <- (1,35)
  [0] 40 <- (1,36)
  [0] 41 <- (1,37)
  [0] 68 <- (1,48)
  [0] 69 <- (1,49)
  [0] 70 <- (1,50)
  [0] 71 <- (1,53)
  [0] 72 <- (1,55)
  [0] 73 <- (1,56)
  [0] 74 <- (1,57)
  [0] 75 <- (1,59)
  [0] 76 <- (1,63)
  [0] 77 <- (1,64)
  [0] 78 <- (1,65)
  [0] 79 <- (1,67)
  [0] 80 <- (1,69)
  [0] 81 <- (1,70)
  [0] 82 <- (1,71)
  [1] Number of roots=83, leaves=22, remote ranks=1
  [1] 16 <- (0,0)
  [1] 17 <- (0,1)
  [1] 18 <- (0,3)
  [1] 19 <- (0,10)
  [1] 20 <- (0,12)
  [1] 21 <- (0,14)
  [1] 22 <- (0,15)
  [1] 38 <- (0,26)
  [1] 39 <- (0,27)
  [1] 40 <- (0,31)
  [1] 41 <- (0,32)
  [1] 72 <- (0,42)
  [1] 73 <- (0,45)
  [1] 74 <- (0,53)
  [1] 75 <- (0,55)
  [1] 76 <- (0,56)
  [1] 77 <- (0,57)
  [1] 78 <- (0,58)
  [1] 79 <- (0,63)
  [1] 80 <- (0,65)
  [1] 81 <- (0,66)
  [1] 82 <- (0,67)
  [0] Roots referenced by my leaves, by rank
  [0] 1: 31 edges
  [0]    16 <- 4
  [0]    17 <- 5
  [0]    18 <- 7
  [0]    19 <- 10
  [0]    20 <- 12
  [0]    21 <- 13
  [0]    22 <- 15
  [0]    33 <- 25
  [0]    34 <- 27
  [0]    35 <- 28
  [0]    36 <- 32
  [0]    37 <- 33
  [0]    38 <- 34
  [0]    39 <- 35
  [0]    40 <- 36
  [0]    41 <- 37
  [0]    68 <- 48
  [0]    69 <- 49
  [0]    70 <- 50
  [0]    71 <- 53
  [0]    72 <- 55
  [0]    73 <- 56
  [0]    74 <- 57
  [0]    75 <- 59
  [0]    76 <- 63
  [0]    77 <- 64
  [0]    78 <- 65
  [0]    79 <- 67
  [0]    80 <- 69
  [0]    81 <- 70
  [0]    82 <- 71
  [1] Roots referenced by my leaves, by rank
  [1] 0: 22 edges
  [1]    16 <- 0
  [1]    17 <- 1
  [1]    18 <- 3
  [1]    19 <- 10
  [1]    20 <- 12
  [1]    21 <- 14
  [1]    22 <- 15
  [1]    38 <- 26
  [1]    39 <- 27
  [1]    40 <- 31
  [1]    41 <- 32
  [1]    72 <- 42
  [1]    73 <- 45
  [1]    74 <- 53
  [1]    75 <- 55
  [1]    76 <- 56
  [1]    77 <- 57
  [1]    78 <- 58
  [1]    79 <- 63
  [1]    80 <- 65
  [1]    81 <- 66
  [1]    82 <- 67