DM Object:Parallel Mesh 2 MPI processes
  type: plex
Mesh 'Parallel Mesh':
Max sizes cone: 3 support: 2
orientation is missing
cap --> base:
[0]: 1 ----> 4
[0]: 1 ----> 6
[0]: 2 ----> 4
[0]: 2 ----> 5
[0]: 3 ----> 5
[0]: 3 ----> 6
[0]: 4 ----> 0
[0]: 5 ----> 0
[0]: 6 ----> 0
Max sizes cone: 3 support: 2
[1]: 1 ----> 4
[1]: 1 ----> 5
[1]: 2 ----> 4
[1]: 2 ----> 6
[1]: 3 ----> 5
[1]: 3 ----> 6
[1]: 4 ----> 0
[1]: 5 ----> 0
[1]: 6 ----> 0
base <-- cap:
[0]: 0 <---- 4 (0)
[0]: 0 <---- 5 (0)
[0]: 0 <---- 6 (0)
[0]: 4 <---- 1 (0)
[0]: 4 <---- 2 (0)
[0]: 5 <---- 2 (0)
[0]: 5 <---- 3 (0)
[0]: 6 <---- 3 (0)
[0]: 6 <---- 1 (0)
[1]: 0 <---- 4 (-2)
[1]: 0 <---- 5 (0)
[1]: 0 <---- 6 (0)
[1]: 4 <---- 1 (0)
[1]: 4 <---- 2 (0)
[1]: 5 <---- 1 (0)
[1]: 5 <---- 3 (0)
[1]: 6 <---- 3 (0)
[1]: 6 <---- 2 (0)
coordinates with 1 fields
  field 0 with 2 components
Process 0:
  (   1) dim  2 offset   0 -0.5 0
  (   2) dim  2 offset   2 0 -0.5
  (   3) dim  2 offset   4 0 0.5
Process 1:
  (   1) dim  2 offset   0 0 -0.5
  (   2) dim  2 offset   2 0 0.5
  (   3) dim  2 offset   4 0.5 0
PetscSF Object: 2 MPI processes
  type: basic
    sort=rank-order
  [0] Number of roots=7, leaves=3, remote ranks=1
  [0] 2 <- (1,1)
  [0] 3 <- (1,2)
  [0] 5 <- (1,4)
  [1] Number of roots=7, leaves=0, remote ranks=0
  [0] Roots referenced by my leaves, by rank
  [0] 1: 3 edges
  [0]    2 <- 1
  [0]    3 <- 2
  [0]    5 <- 4
  [1] Roots referenced by my leaves, by rank
DM Object:Hybrid Mesh 2 MPI processes
  type: plex
Mesh 'Hybrid Mesh':
Max sizes cone: 3 support: 3
orientation is missing
cap --> base:
[0]: 4 ----> 0
[0]: 5 ----> 1
[0]: 6 ----> 2
[0]: 7 ----> 0
[0]: 7 ----> 1
[0]: 7 ----> 3
[0]: 8 ----> 1
[0]: 8 ----> 2
[0]: 8 ----> 3
[0]: 9 ----> 0
[0]: 9 ----> 2
[0]: 9 ----> 3
Max sizes cone: 3 support: 3
[1]: 4 ----> 1
[1]: 5 ----> 0
[1]: 6 ----> 2
[1]: 7 ----> 0
[1]: 7 ----> 1
[1]: 7 ----> 3
[1]: 8 ----> 1
[1]: 8 ----> 2
[1]: 8 ----> 3
[1]: 9 ----> 0
[1]: 9 ----> 2
[1]: 9 ----> 3
base <-- cap:
[0]: 0 <---- 4 (0)
[0]: 0 <---- 7 (0)
[0]: 0 <---- 9 (0)
[0]: 1 <---- 7 (0)
[0]: 1 <---- 5 (0)
[0]: 1 <---- 8 (0)
[0]: 2 <---- 9 (0)
[0]: 2 <---- 8 (0)
[0]: 2 <---- 6 (0)
[0]: 3 <---- 7 (0)
[0]: 3 <---- 8 (0)
[0]: 3 <---- 9 (0)
[1]: 0 <---- 5 (0)
[1]: 0 <---- 7 (0)
[1]: 0 <---- 9 (0)
[1]: 1 <---- 7 (0)
[1]: 1 <---- 4 (0)
[1]: 1 <---- 8 (0)
[1]: 2 <---- 9 (0)
[1]: 2 <---- 8 (0)
[1]: 2 <---- 6 (0)
[1]: 3 <---- 7 (0)
[1]: 3 <---- 8 (0)
[1]: 3 <---- 9 (0)
PetscSF Object: 2 MPI processes
  type not yet set
  [0] Number of roots=10, leaves=3, remote ranks=1
  [0] 5 <- (1,4)
  [0] 6 <- (1,5)
  [0] 8 <- (1,7)
  [1] Number of roots=10, leaves=0, remote ranks=0
  [0] Roots referenced by my leaves, by rank
  [0] 1: 3 edges
  [0]    5 <- 4
  [0]    6 <- 5
  [0]    8 <- 7
  [1] Roots referenced by my leaves, by rank