0 SNES Function norm 95.269 
    1 SNES Function norm 11.2453 
      0 SNES Function norm 6.69441 
      1 SNES Function norm 1.27179 
      2 SNES Function norm 0.0786282 
      3 SNES Function norm 0.000346329 
      4 SNES Function norm 6.78217e-09 
    1 SNES Function norm 1.5269 
  1 SNES Function norm 1.5269 
    1 SNES Function norm 0.786935 
      0 SNES Function norm 0.644947 
      1 SNES Function norm 0.023485 
      2 SNES Function norm 3.24226e-05 
      3 SNES Function norm 6.187e-11 
    1 SNES Function norm 0.171399 
  2 SNES Function norm 0.171399 
    1 SNES Function norm 0.0604442 
      0 SNES Function norm 0.0469332 
      1 SNES Function norm 0.000127582 
      2 SNES Function norm 9.440e-10 
      3 SNES Function norm < 1.e-11
    1 SNES Function norm 0.00980761 
  3 SNES Function norm 0.00980761 
    1 SNES Function norm 0.00440087 
      0 SNES Function norm 0.00415018 
      1 SNES Function norm 9.97962e-07 
      2 SNES Function norm < 1.e-11
    1 SNES Function norm 0.00104388 
  4 SNES Function norm 0.00104388 
    1 SNES Function norm 0.000528073 
      0 SNES Function norm 0.00048625 
      1 SNES Function norm 1.36987e-08 
      2 SNES Function norm < 1.e-11
    1 SNES Function norm 0.00012108 
  5 SNES Function norm 0.00012108 
    1 SNES Function norm 5.81448e-05 
      0 SNES Function norm 5.21822e-05 
      1 SNES Function norm 1.578e-10 
      2 SNES Function norm < 1.e-11
    1 SNES Function norm 1.26223e-05 
  6 SNES Function norm 1.26223e-05 
    1 SNES Function norm 5.94556e-06 
      0 SNES Function norm 5.31009e-06 
      1 SNES Function norm < 1.e-11
      2 SNES Function norm < 1.e-11
    1 SNES Function norm 1.27621e-06 
  7 SNES Function norm 1.27621e-06 
    1 SNES Function norm 5.96441e-07 
      0 SNES Function norm 5.32365e-07 
      1 SNES Function norm < 1.e-11
      2 SNES Function norm < 1.e-11
    1 SNES Function norm 1.27642e-07 
  8 SNES Function norm 1.27642e-07 
Nonlinear solve converged due to CONVERGED_FNORM_RELATIVE iterations 8
SNES Object: 1 MPI processes
  type: fas
  FAS: type is MULTIPLICATIVE, levels=2, cycles=1
      Not using Galerkin computed coarse grid function evaluation
  Coarse grid solver -- level 0 -------------------------------
    SNES Object:    (fas_coarse_)     1 MPI processes
      type: newtonls
      maximum iterations=50, maximum function evaluations=10000
      tolerances: relative=1e-08, absolute=1e-50, solution=1e-08
      total number of linear solver iterations=2
      total number of function evaluations=2
      SNESLineSearch Object:      (fas_coarse_)       1 MPI processes
        type: basic
        maxstep=1.000000e+08, minlambda=1.000000e-12
        tolerances: relative=1.000000e-08, absolute=1.000000e-15, lambda=1.000000e-08
        maximum iterations=40
      KSP Object:      (fas_coarse_)       1 MPI processes
        type: gmres
          GMRES: restart=30, using Classical (unmodified) Gram-Schmidt Orthogonalization with no iterative refinement
          GMRES: happy breakdown tolerance 1e-30
        maximum iterations=10000, initial guess is zero
        tolerances:  relative=1e-10, absolute=1e-50, divergence=10000
        left preconditioning
        using PRECONDITIONED norm type for convergence test
      PC Object:      (fas_coarse_)       1 MPI processes
        type: svd
        linear system matrix = precond matrix:
        Mat Object:         1 MPI processes
          type: seqaij
          rows=1, cols=1
          total: nonzeros=1, allocated nonzeros=1
          total number of mallocs used during MatSetValues calls =0
            not using I-node routines
  Down solver (pre-smoother) on level 1 -------------------------------
    SNES Object:    (fas_levels_1_)     1 MPI processes
      type: ngs
      maximum iterations=1, maximum function evaluations=30000
      tolerances: relative=0, absolute=0, solution=0
      total number of linear solver iterations=0
      total number of function evaluations=1
      norm schedule FINALONLY
      SNESLineSearch Object:      (fas_levels_1_)       1 MPI processes
        type: basic
        maxstep=1.000000e+08, minlambda=1.000000e-12
        tolerances: relative=1.000000e-08, absolute=1.000000e-15, lambda=1.000000e-08
        maximum iterations=1
  Up solver (post-smoother) same as down solver (pre-smoother)
  maximum iterations=10000, maximum function evaluations=30000
  tolerances: relative=1e-08, absolute=1e-50, solution=1e-08
  total number of linear solver iterations=0
  total number of function evaluations=1
  norm schedule ALWAYS
  SNESLineSearch Object:   1 MPI processes
    type: basic
    maxstep=1.000000e+08, minlambda=1.000000e-12
    tolerances: relative=1.000000e-08, absolute=1.000000e-15, lambda=1.000000e-08
    maximum iterations=1
Number of SNES iterations = 8
L_2 Error: 0.0252141
WARNING! There are options you set that were not used!
WARNING! could be spelling mistake, etc!
Option left: name:-dm_refinement_limit value: 0.03125